 
****************************************
Report : area
Design : DLX
Version: Z-2007.03-SP1
Date   : Sat Sep 15 22:53:28 2018
****************************************

Library(s) Used:

    NangateOpenCellLibrary (File: /home/mariagrazia.graziano/do/libnangate/NangateOpenCellLibrary_typical_ecsm.db)

Number of ports:              142
Number of nets:               456
Number of cells:              211
Number of references:           7

Combinational area:       15364.692054
Noncombinational area:    6220.942041
Net Interconnect area:      undefined  (Wire load has zero net area)

Total cell area:          21585.634766
Total area:                 undefined
1
