###############################################################
#  Generated by:      Cadence Innovus 17.11-s080_1
#  OS:                Linux x86_64(Host ID microelnsys)
#  Generated on:      Sun Sep 16 11:36:19 2018
#  Design:            DLX
#  Command:           verifyConnectivity -type all -error 1000 -warning 50
###############################################################
Verify Connectivity Report is created on Sun Sep 16 11:36:19 2018




Begin Summary
    Found no problems or warnings.
End Summary
